Final project - Results from the MTA-LFZE Active Music Learning project
…
First, the type of variables was checked.

stand_data 

## # A tibble: 58 x 44
##    ID    gend~ group age_~ st_B~ st_D~ st_V~ st_B~ st_D~ st_V~ st_r~ st_P~
##    <chr> <chr> <chr> <dbl> <dbl> <dbl> <dbl> <dbl> <dbl> <dbl> <dbl> <dbl>
##  1 A389~ fema~ music  86.0  5.00 10.0   8.00 11.0   5.00  9.00  NA    NA  
##  2 A564~ male  maths  86.0 17.0  15.0  12.0  18.0  12.0  13.0   42.0  54.0
##  3 B574~ male  maths  96.0  9.00 10.0  12.0   6.00 11.0  10.0   NA    NA  
##  4 B656~ fema~ music  88.0 17.0  17.0  17.0  13.0  13.0  16.0   47.0  55.0
##  5 C354~ male  music  93.0 10.0  11.0  12.0  12.0  12.0  18.0   27.0  33.0
##  6 C472~ male  maths  92.0 18.0  12.0  12.0  18.0  14.0  14.0   41.0  61.0
##  7 C938~ fema~ music  86.0  8.00 12.0  17.0   7.00 11.0  12.0   NA    NA  
##  8 D328~ male  music  92.0  6.00 10.0  12.0  10.0  11.0  16.0   NA    NA  
##  9 D754~ male  music  90.0 10.0   8.00 13.0  11.0  10.0  13.0   NA    49.0
## 10 E584~ fema~ music  90.0 14.0  10.0  10.0  14.0  12.0  12.0   30.0  54.0
## # ... with 48 more rows, and 32 more variables: st_RAN_scale <dbl>,
## #   st_reading_2 <dbl>, st_PA_scale_2 <dbl>, st_RAN_scale_2 <dbl>, melody
## #   <dbl>, pitch <dbl>, rhythm <dbl>, harmony <dbl>, tempo <dbl>,
## #   vis_connection <dbl>, melody_2 <dbl>, pitch_2 <dbl>, rhythm_2 <dbl>,
## #   harmony_2 <dbl>, tempo_2 <dbl>, vis_connection_2 <dbl>, entr_paced
## #   <dbl>, entr_unpaced <dbl>, entr_paced_2 <dbl>, entr_unpaced_2 <dbl>,
## #   entr_paced_2Hz <dbl>, entr_paced_2.5Hz <dbl>, entr_paced_1.5Hz <dbl>,
## #   entr_paced_2Hz_2 <dbl>, entr_paced_2.5Hz_2 <dbl>, entr_paced_1.5Hz_2
## #   <dbl>, entr_unpaced_2Hz <dbl>, entr_unpaced_2.5Hz <dbl>,
…
